{
  "AC_ALLOW_REMOTE": "RemoteAccessAllowed",
  "AC_AUTHENTICATION_ENABLED": "AuthenticationEnabled",
  "AC_REGISTERED_USERS": "RegisteredUsers",
  "AUTHZ_WEBSERVICE": "Authorization.WebService",
  "AUTHZ_TOKEN_HTTP_HEADERS": "Authorization.TokenHttpHeaders",
  "AUTHZ_TOKEN_GET_ARGUMENTS": "Authorization.TokenGetArguments",
  "AUTHZ_UNCHECKED_RESOURCES": "Authorization.UncheckedResources",
  "AUTHZ_UNCHECKED_FOLDERS": "Authorization.UncheckedFolders",
  "AUTHZ_UNCHECKED_LEVELS": "Authorization.UncheckedLevels",
  "DICOM_AET": "DicomAet",
  "DICOM_AET_CHECK_ENABLED": "DicomCheckCalledAet",
  "DICOM_ALWAYS_ALLOW_ECHO_ENABLED": "DicomAlwaysAllowEcho",
  "DICOM_ALWAYS_ALLOW_STORE_ENABLED": "DicomAlwaysAllowStore",
  "DICOM_CHECK_MODALITY_HOST_ENABLED": "DicomCheckModalityHost",
  "DICOM_DICTIONARY": "Dictionary",
  "DICOM_MODALITIES": "DicomModalities",
  "DICOM_PORT": "DicomPort",
  "DICOM_QUERY_RETRIEVE_SIZE": "QueryRetrieveSize",
  "DICOM_SCP_TIMEOUT": "DicomScpTimeout",
  "DICOM_SCU_TIMEOUT": "DicomScuTimeout",
  "DICOM_STRICT_AET_COMPARISON_ENABLED": "StrictAetComparison",
  "DICOM_SYNCHRONOUS_CMOVE": "SynchronousCMove",
  "DICOM_UNKNOWN_SOP_CLASS_ACCEPTED": "UnknownSopClassAccepted",
  "DW_ROOT": "DicomWeb.Root",
  "DW_WADO_URI_ENABLED": "DicomWeb.EnableWado",
  "DW_WADO_URI_ROOT": "DicomWeb.WadoRoot",
  "DW_HOST": "DicomWeb.Host",
  "DW_TLS": "DicomWeb.Ssl",
  "DW_SERVERS": "DicomWeb.Servers",
  "DW_STOW_MAX_INSTANCES": "DicomWeb.StowMaxInstances",
  "DW_STOW_MAX_SIZE": "DicomWeb.StowMaxSize",
  "EXECUTE_LUA_ENABLED": "ExecuteLuaEnabled",
  "HTTP_CL_TIMEOUT": "HttpTimeout",
  "HTTP_CL_VERIFY_PEERS": "HttpsVerifyPeers",
  "HTTP_CL_CA_CERTS": "HttpsCACertificates",
  "HTTP_CL_PROXY": "HttpProxy",
  "HTTP_VERBOSE": "HttpVerbose",
  "HTTP_PORT": "HttpPort",
  "HTTP_KEEP_ALIVE": "KeepAlive",
  "HTTP_TCP_NODELAY": "TcpNoDelay",
  "HTTP_REQUEST_TIMEOUT": "HttpRequestTimeout",
  "IMPORT_OVERWRITE_INSTANCES": "OverwriteInstances",
  "LISTENER_LISTEN_ALL_ADDR": "RemoteAccessAllowed",
  "LOCALE": "Locale",
  "LUA_OPTIONS": "LuaOptions",
  "LUA_SCRIPTS": "LuaScripts",
  "PEERS": "OrthancPeers",
  "PG_PASSWORD": "PostgreSQL.Password",
  "PG_INDEX_ENABLED": "PostgreSQL.EnableIndex",
  "PG_STORAGE_ENABLED": "PostgreSQL.EnableStorage",
  "PG_HOST": "PostgreSQL.Host",
  "PG_PORT": "PostgreSQL.Port",
  "PG_DB": "PostgreSQL.Database",
  "PG_USER": "PostgreSQL.Username",
  "PG_SSL": "PostgreSQL.EnableSsl",
  "PG_LOCK": "PostgreSQL.Lock",
  "PLUGINS": "Plugins",
  "NAME": "Name",
  "SCHED_JOBS_HISTORY_SIZE": "JobsHistorySize",
  "SCHED_MAX_CONCURRENT_JOBS": "ConcurrentJobs",
  "SCHED_MAX_QUEUED_JOBS": "LimitJobs",
  "SCHED_SAVE_JOBS": "SaveJobs",
  "SERVEFOLDERS_ALLOW_CACHE": "ServeFolders.AllowCache",
  "SERVEFOLDERS_GENERATE_ETAGS": "ServeFolders.GenerateETag",
  "SERVEFOLDERS_EXTENSIONS": "ServeFolders.Extensions",
  "SERVEFOLDERS_FOLDERS": "ServeFolders.Folders",
  "STABLE_AGE": "StableAge",
  "STORAGE_ACCESS_ON_FIND": "StorageAccessOnFind",
  "STORAGE_DIR": "StorageDirectory",
  "STORAGE_MAX_SIZE": "MaximumStorageSize",
  "STORAGE_MAX_PATIENTS": "MaximumPatientCount",
  "STORE_DICOM": "StoreDicom",
  "TRANSFERS_THREADS": "Transfers.Threads",
  "TRANSFERS_RETRIES": "Transfers.MaxHttpRetries",
  "TRANSFERS_BUCKET_SIZE": "Transfers.BucketSize",
  "TRANSFERS_CACHE_SIZE": "Transfers.CacheSize",
  "TRANSFERS_MAX_PUSH_TRANSACTIONS": "Transfers.MaxPushTransactions",
  "USERMETADATA": "UserMetadata",
  "WL_STORAGE_DIR": "Worklists.Database",
  "WVB_ANNOTATIONS_STORAGE_ENABLED": "WebViewer.AnnotationStorageEnabled",
  "WVB_COMBINED_TOOL_ENABLED": "WebViewer.CombinedToolEnabled",
  "WVB_CROSS_HAIR_ENABLED": "WebViewer.CrossHairEnabled",
  "WVB_LANGUAGE": "WebViewer.DefaultLanguage",
  "WVB_DEFAULT_SELECTED_TOOL": "WebViewer.DefaultSelectedTool",
  "WVB_DOWNLOAD_AS_JPEG_ENABLED": "WebViewer.DownloadAsJpegEnabled",
  "WVB_INSTANCE_INFO_CACHE_ENABLED": "WebViewer.InstanceInfoCacheEnabled",
  "WVB_KEY_IMAGE_CAPTURE_ENABLED": "WebViewer.KeyImageCaptureEnabled",
  "WVB_KEYBOARD_SHORTCUTS_ENABLED": "WebViewer.KeyboardShortcutsEnabled",
  "WVB_OPEN_ALL_PATIENT_STUDIES": "WebViewer.OpenAllPatientStudies",
  "WVB_PRINT_ENABLED": "WebViewer.PrintEnabled",
  "WVB_REFERENCE_LINES_ENABLED": "WebViewer.ReferenceLinesEnabled",
  "WVB_SERIES_TO_IGNORE": "WebViewer.SeriesToIgnore",
  "WVB_STUDY_DOWNLOAD_ENABLED": "WebViewer.StudyDownloadEnabled",
  "WVB_SYNCHRONIZED_BROWSING_ENABLED": "WebViewer.SynchronizedBrowsingEnabled",
  "WVB_TOGGLE_OVERLAY_TEXT_BUTTON_ENABLED": "WebViewer.ToggleOverlayTextButtonEnabled",
  "WVB_VIDEO_ENABLED": "WebViewer.VideoDisplayEnabled"
}